MAC ADDRESSES	FREQUENCY
00:10:3e:3e:03:23	1
00:13:ef:12:0e:3f	1
00:15:ab:10:01:ba	1
00:10:3e:4f:ab:23	1
00:20:4d:13:12:a0	1
00:15:ab:20:03:0a	1
00:20:3c:14:08:5b	1
00:10:4d:32:ce:22	1
00:20:3c:11:ab:32	1
00:12:33:aa:3e:34	1
